Interact with iTunes Top Hits, Movies, Apps and their associated reviews • itunes
…
get_top_hits: Get a list of top/trending Songs on iTunes + SubCategories

get_top_albums: Get a list of top/trending Albums on iTunes + SubCategories

get_top_apps: Get a list of top/trending Apps on iTunes + SubCategories

 Installation

{r eval=FALSE} devtools::install_github("thelostscientist/itunes")

 Usage

```{r eval=FALSE} library(itunes) reviews.df <- get_reviews(1161476603)

 > # A tibble: 108 × 7

 > review.id author rating review.title

 >* 

 >1 1522194473 tony arndt 5 worth the money

 >2 1522188743 hpburns 2 Uninteresting

 >3 1522178622 Nader hilmi 5 Amazing!!!

 >4 1522150059 michgro 1 A complete mess of a film

 >5 1522133793 Benni Baby Cakes 5 Dang

 >6 1522010985 LeslieHenson 5 Terrific film

 >7 1521876920 Dragon77989789 4 ohonecanknowme

 >8 1521836888 bouk_man 5 One of Affleck’s best

 >9 1521745063 Poria 1 5 Review

 >10 1521684519 ridgrunnr 5 Fascinating story!

 ># … with 98 more rows, and 3 more variables: review.text , review.link , review.date 
…
